,product,electron_carrier,pathway,eta_pv_low,eta_pv_high,eta_ec_low,eta_ec_high,eta_bio_low,eta_bio_high,eta_prod_low,eta_prod_high,theta_dac_low,theta_dac_high,theta_bio_low,theta_bio_high,theta_nut_low,theta_nut_high,theta_ppr_low,theta_ppr_high,eta_star_value,eta_star_error,eta_sp_value,eta_sp_error,label,eta_star_low,eta_star_high,eta_sp_low,eta_sp_high,eta_bio_value,eta_bio_error
0,feed,Hydrogen,Calvin cycle,0.041,0.056,0.65,0.75,0.27,0.36,1.0,1.0,0.52,0.78,0.38,0.78,0.24,0.33,0.42,0.46,0.6987741754027996,0.042637410200970595,0.00747286572530139,0.0014524671732486318,feed : Hydrogen : Calvin cycle,0.6561367652018291,0.7414115856037702,0.006020398552052757,0.008925332898550022,0.315,0.044999999999999984
1,feed,Formate,Calvin cycle,0.041,0.056,0.3,0.5,0.21,0.32,1.0,1.0,0.52,0.78,0.38,0.78,0.24,0.33,0.42,0.46,0.8283425693529816,0.04948123645236587,0.004258509149043679,0.0013250168308180622,feed : Formate : Calvin cycle,0.7788613329006157,0.8778238058053475,0.002933492318225617,0.005583525979861741,0.265,0.05500000000000001
2,feed,Formate,Serine cycle,0.041,0.056,0.3,0.5,0.39,0.53,1.0,1.0,0.52,0.78,0.38,0.78,0.24,0.33,0.42,0.46,0.7354455329038331,0.06188855245156898,0.006563115935633808,0.0017528527378487578,feed : Formate : Serine cycle,0.6735569804522641,0.7973340853554021,0.00481026319778505,0.008315968673482565,0.46,0.07
3,feed,Methanol,Calvin cycle,0.041,0.056,0.5,0.6,0.19,0.22,1.0,1.0,0.52,0.78,0.38,0.78,0.24,0.33,0.42,0.46,0.8193858498209129,0.025263132848794948,0.004480709096514436,0.0008208743975882259,feed : Methanol : Calvin cycle,0.7941227169721179,0.8446489826697079,0.0036598346989262097,0.005301583494102662,0.20500000000000002,0.015
4,feed,Methanol,Serine cycle,0.041,0.056,0.5,0.6,0.33,0.36,1.0,1.0,0.52,0.78,0.38,0.78,0.24,0.33,0.42,0.46,0.7294152187014767,0.03162625566560897,0.006712717080807353,0.0011714136427662374,feed : Methanol : Serine cycle,0.6977889630358678,0.7610414743670857,0.0055413034380411156,0.00788413072357359,0.345,0.014999999999999986
5,feed,Methanol,RuMP cycle,0.041,0.056,0.5,0.6,0.42,0.48,1.0,1.0,0.52,0.78,0.38,0.78,0.24,0.33,0.42,0.46,0.6739168891996394,0.03692292631306147,0.008089529858730172,0.0014319986612681902,feed : Methanol : RuMP cycle,0.636993962886578,0.7108398155127009,0.006657531197461982,0.009521528519998362,0.44999999999999996,0.03
6,food,Hydrogen,Calvin cycle,0.041,0.056,0.65,0.75,0.27,0.36,0.46,0.63,0.52,0.78,0.38,0.78,0.24,0.33,0.52,1.05,0.6635039644361875,0.049886036443210297,0.0038671441130610756,0.0009647169091354373,food : Hydrogen : Calvin cycle,0.6136179279929772,0.7133900008793979,0.0029024272039256385,0.004831861022196513,0.315,0.044999999999999984
7,food,Formate,Calvin cycle,0.041,0.056,0.3,0.5,0.21,0.32,0.46,0.63,0.52,0.78,0.38,0.78,0.24,0.33,0.52,1.05,0.8039877793857533,0.05681817256074969,0.0022526491397330765,0.0007719051957066495,food : Formate : Calvin cycle,0.7471696068250036,0.860805951946503,0.001480743944026427,0.003024554335439726,0.265,0.05500000000000001
8,food,Formate,Serine cycle,0.041,0.056,0.3,0.5,0.39,0.53,0.46,0.63,0.52,0.78,0.38,0.78,0.24,0.33,0.52,1.05,0.7026419336706015,0.06931863863055893,0.0034173552557616644,0.0010403916481372007,food : Formate : Serine cycle,0.6333232950400425,0.7719605723011604,0.002376963607624464,0.004457746903898865,0.46,0.07
9,food,Methanol,Calvin cycle,0.041,0.056,0.5,0.6,0.19,0.22,0.46,0.63,0.52,0.78,0.38,0.78,0.24,0.33,0.52,1.05,0.794076191610585,0.031889348380664026,0.002366556984892701,0.0005692555022943914,food : Methanol : Calvin cycle,0.7621868432299209,0.825965539991249,0.0017973014825983097,0.002935812487187092,0.20500000000000002,0.015
10,food,Methanol,Serine cycle,0.041,0.056,0.5,0.6,0.33,0.36,0.46,0.63,0.52,0.78,0.38,0.78,0.24,0.33,0.52,1.05,0.6961727900864995,0.03932655728148751,0.0034917011852341755,0.0008219460615697966,food : Methanol : Serine cycle,0.656846232805012,0.7354993473679869,0.002669755123664379,0.004313647246803972,0.345,0.014999999999999986
11,food,Methanol,RuMP cycle,0.041,0.056,0.5,0.6,0.42,0.48,0.46,0.63,0.52,0.78,0.38,0.78,0.24,0.33,0.52,1.05,0.6372470925601402,0.04453892067829435,0.004168898359088737,0.0009919117008747335,food : Methanol : RuMP cycle,0.5927081718818459,0.6817860132384346,0.0031769866582140034,0.00516081005996347,0.44999999999999996,0.03
