location,irradiance,unit
Scotland,800,kWh/m2/y
N. Germany,1000,kWh/m2/y
N. Japan,1200,kWh/m2/y
S. Canadian Prairies,1400,kWh/m2/y
S. France,1600,kWh/m2/y
S. Spain,1800,kWh/m2/y
California Valley,2000,kWh/m2/y
S. Israel,2200,kWh/m2/y
Sudan,2400,kWh/m2/y
Andes,2600,kWh/m2/y
